-------------------------------------------------------------------------------
Test set: com.techuniversity.AppTest
-------------------------------------------------------------------------------
Tests run: 1, Failures: 0, Errors: 0, Skipped: 0, Time elapsed: 0.241 s - in com.techuniversity.AppTest
